<?xml version="1.0" encoding="utf-8"?>
<!-- Generator: Adobe Illustrator 22.1.0, SVG Export Plug-In . SVG Version: 6.00 Build 0)  -->
<svg version="1.1" id="Warstwa_2" xmlns="http://www.w3.org/2000/svg" xmlns:xlink="http://www.w3.org/1999/xlink" x="0px" y="0px"
	 viewBox="0 0 745 420" style="enable-background:new 0 0 745 420;" xml:space="preserve">
<style type="text/css">
	.st0{fill:#064CFC;}
	.st1{fill:#004BE0;stroke:#064CFC;stroke-miterlimit:10;}
	.st2{fill:#FFFFFF;stroke:#064CFC;stroke-miterlimit:10;}
	.st3{fill:#08DDF9;}
</style>
<g>
	<g>
		<path class="st0" d="M106,391.5c22,0,44,0,66,0c3.2,0,3.2-5,0-5c-22,0-44,0-66,0C102.8,386.5,102.8,391.5,106,391.5L106,391.5z"/>
	</g>
</g>
<g>
	<g>
		<path class="st0" d="M223,390.5c6.7,0,13.3,0,20,0c3.2,0,3.2-5,0-5c-6.7,0-13.3,0-20,0C219.8,385.5,219.8,390.5,223,390.5
			L223,390.5z"/>
	</g>
</g>
<g>
	<g>
		<path class="st0" d="M242.7,389.3c3.8,0.3,6.7-3,6.7-6.7c0-2.2-1.1-4.3-2.4-6c-2.2-3.1-4.2-5.6-5.3-9.3c-1.6-5.5-2-11.2-4.8-16.3
			c-2.3-4.2-6-7.3-10.1-9.6c-9.4-5.2-20.7-6.1-29.9-11.7c-11.1-6.8-17.3-19.2-27.7-26.8c-19.3-14.1-45.3-15.5-68-10.8
			c-12.3,2.5-24.9,6.7-34.9,14.7c-9,7.2-15.2,17.1-19.3,27.7c-4.7,12.2-6.8,25.3-8,38.2c-0.5,5.7-1,12.7,3.7,16.9
			c3.6,3.2,8.5,3.5,12.2,0.5c2.5-2-1-5.5-3.5-3.5c-4.3,3.4-7.4-3.4-7.7-6.3c-0.2-2.3,0-4.6,0.2-6.9c0.5-5.4,1.1-10.9,2.1-16.2
			c1.7-9.4,4.2-18.8,8.5-27.4c4.4-8.8,10.6-16.6,18.9-22c9.6-6.2,21-9.5,32.1-11.5c19.5-3.5,41.1-2.1,58.1,8.8
			c8.9,5.7,14.6,14.2,21.9,21.6c6.2,6.3,13.3,10,21.5,12.7c9,3,20.5,5.1,25.5,14.1c2.8,5.1,2.9,11.1,4.7,16.5
			c0.7,2.1,1.6,4.1,2.8,5.9c0.9,1.4,7.1,8.9,2.5,8.5C239.5,384,239.5,389,242.7,389.3L242.7,389.3z"/>
	</g>
</g>
<circle class="st1" cx="80.5" cy="385.5" r="26"/>
<circle class="st1" cx="197.5" cy="385.5" r="26"/>
<circle class="st2" cx="81" cy="386" r="14.5"/>
<circle class="st2" cx="198" cy="385" r="14.5"/>
<g>
	<g>
		<path class="st0" d="M63.2,336.9c15.9,0,31.8,0,47.6,0c3.2,0,3.2-5,0-5c-15.9,0-31.8,0-47.6,0C60,331.9,60,336.9,63.2,336.9
			L63.2,336.9z"/>
	</g>
</g>
<g>
	<g>
		<path class="st0" d="M113.9,334.3c0-5.5,0-11.1,0-16.6c0-3.5,1-8.5-0.4-11.8c-2.4-5.7-13.4-3.5-18-2.5c-14.9,3-27.9,13.4-34,27.3
			c-1.3,2.9,3,5.5,4.3,2.5c4.9-11.3,14.4-20,26.2-23.7c2.9-0.9,6-1.6,9.1-1.9c1.4-0.1,2.9-0.3,4.3-0.1c0.5,0,0.9,0,1.4,0.1
			c2,0.4,2.7,1.6,2.2,3.4c0.8,3.1,0,7.5,0,10.7c0,4.2,0,8.5,0,12.7C108.9,337.6,113.9,337.6,113.9,334.3L113.9,334.3z"/>
	</g>
</g>
<g>
	<g>
		<path class="st0" d="M118.9,305.5c0,9.2,0,18.4,0,27.6c0,3.2,5,3.2,5,0c0-9.2,0-18.4,0-27.6C123.9,302.3,118.9,302.3,118.9,305.5
			L118.9,305.5z"/>
	</g>
</g>
<g>
	<g>
		<path class="st0" d="M122,336.9c13.5,0,27.1,0,40.6,0c3.2,0,3.2-5,0-5c-13.5,0-27.1,0-40.6,0C118.8,331.9,118.8,336.9,122,336.9
			L122,336.9z"/>
	</g>
</g>
<g>
	<g>
		<path class="st0" d="M162.6,336.9c3.5,0,7.1,0,10.6,0c3.2,0,3.2-5,0-5c-3.5,0-7.1,0-10.6,0C159.4,331.9,159.4,336.9,162.6,336.9
			L162.6,336.9z"/>
	</g>
</g>
<g>
	<g>
		<path class="st0" d="M175.9,333.9c-4.1-26.1-31.9-35.8-55.2-34.1c-3.2,0.2-3.2,5.2,0,5c21.2-1.6,46.6,6.4,50.4,30.4
			C171.6,338.4,176.4,337,175.9,333.9L175.9,333.9z"/>
	</g>
</g>
<g>
	<g>
		<path class="st0" d="M30.2,412.7c3.2,0,3.2-5,0-5C27,407.7,27,412.7,30.2,412.7L30.2,412.7z"/>
	</g>
</g>
<g>
	<g>
		<path class="st0" d="M30.2,412.7c125.1,0,250.2,0,375.4,0c35.3,0,70.5,0,105.8,0c3.2,0,3.2-5,0-5c-125.1,0-250.2,0-375.4,0
			c-35.3,0-70.5,0-105.8,0C27,407.7,27,412.7,30.2,412.7L30.2,412.7z"/>
	</g>
</g>
<g>
	<g>
		<path class="st0" d="M322.4,408.9c6.8-21.2,16.3-41.5,25.5-61.8c9.1-20.2,18.2-40.4,27.5-60.5c18.6-40.6,37.7-80.9,58-120.7
			c11.1-21.7,22.4-43.2,35.7-63.6c-1.4,0-2.9,0-4.3,0c34.6,73.5,69.2,147,103.7,220.6c1.4,2.9,5.7,0.4,4.3-2.5
			c-34.6-73.5-69.2-147-103.7-220.6c-0.8-1.8-3.4-1.4-4.3,0c-24.1,36.9-43,77.4-62.1,117.1c-19.5,40.5-38.1,81.5-56.6,122.5
			c-10.1,22.5-20.9,44.8-28.4,68.3C316.6,410.7,321.4,412,322.4,408.9L322.4,408.9z"/>
	</g>
</g>
<g>
	<g>
		<path class="st0" d="M506,186.5c3.2,0,3.2-5,0-5C502.8,181.5,502.8,186.5,506,186.5L506,186.5z"/>
	</g>
</g>
<g>
	<g>
		<path class="st0" d="M523.2,212.7c25.3-54.8,54.9-107.5,88.5-157.7c-1.5-0.2-3-0.4-4.6-0.6c36.4,91.5,73.8,182.8,106.1,275.9
			c9.1,26.3,17.8,52.8,25.9,79.5c0.9,3.1,5.8,1.8,4.8-1.3c-28.4-93.7-64.3-185-100.4-275.9c-10.5-26.5-21-53-31.6-79.4
			c-0.8-2-3.3-2.5-4.6-0.6c-33.6,50.2-63.2,102.9-88.5,157.7C517.5,213.1,521.8,215.7,523.2,212.7L523.2,212.7z"/>
	</g>
</g>
<g>
	<g>
		<path class="st0" d="M591,82.1c-13.1-13.6-30.4-22.2-48.3-27.7c-18.9-5.8-39.2-7.7-58.6-4c-33,6.3-63.6,31.1-68.8,65.5
			c-2.7,18.3,1.6,37,13.2,51.4c2,2.5,5.5-1,3.5-3.5c-20.7-25.8-14.2-63.5,8.5-85.7c25.3-24.6,62.6-29.1,95.7-20.4
			c18.9,5,37.5,13.7,51.3,27.9C589.7,87.9,593.3,84.4,591,82.1L591,82.1z"/>
	</g>
</g>
<g>
	<g>
		<path class="st0" d="M405,116.9c-20.7-0.9-41.3-1.9-62-2.8c-3.2-0.1-3.2,4.9,0,5c20.7,0.9,41.3,1.9,62,2.8
			C408.2,122,408.2,117,405,116.9L405,116.9z"/>
	</g>
</g>
<g>
	<g>
		<path class="st0" d="M406.6,88.8c-9.9-1.5-19.5-4-28.9-7.3c-3-1.1-4.3,3.7-1.3,4.8c9.4,3.4,19,5.8,28.9,7.3
			C408.5,94.1,409.8,89.3,406.6,88.8L406.6,88.8z"/>
	</g>
</g>
<g>
	<g>
		<path class="st0" d="M426.3,73.7c-7.7-5.3-12.2-14-19.3-20c-6.6-5.6-14.4-10.2-18.6-18.1c-1.5-2.8-5.8-0.3-4.3,2.5
			c4.5,8.3,12.4,13.1,19.4,19.1c7.5,6.3,12.2,15.2,20.4,20.8C426.5,79.9,429,75.5,426.3,73.7L426.3,73.7z"/>
	</g>
</g>
<g>
	<g>
		<path class="st0" d="M448.6,58.5c-4.8-4-9-8.6-12.4-13.7c-1.8-2.7-6.1-0.2-4.3,2.5c3.7,5.5,8.1,10.5,13.2,14.7
			C447.5,64.1,451,60.5,448.6,58.5L448.6,58.5z"/>
	</g>
</g>
<g>
	<g>
		<path class="st0" d="M470.7,47.2c-3.9-12.1-5.3-24.6-4.1-37.2c0.3-3.2-4.7-3.2-5,0c-1.3,13.1,0.2,26.1,4.2,38.5
			C466.9,51.6,471.7,50.3,470.7,47.2L470.7,47.2z"/>
	</g>
</g>
<g>
	<g>
		<path class="st0" d="M502.7,43.2c-1.7-5.6-1.5-11.1,0.6-16.6c1.2-3-3.7-4.3-4.8-1.3c-2.4,6.2-2.6,12.9-0.6,19.2
			C498.9,47.6,503.7,46.3,502.7,43.2L502.7,43.2z"/>
	</g>
</g>
<g>
	<g>
		<path class="st0" d="M537.9,45.9c3.3-12.2,6.9-24.8,16.7-33.5c2.4-2.1-1.1-5.7-3.5-3.5c-10.4,9.3-14.4,22.7-18,35.7
			C532.2,47.7,537,49,537.9,45.9L537.9,45.9z"/>
	</g>
</g>
<g>
	<g>
		<path class="st0" d="M564.8,57.8c4.8-4.9,9.5-9.8,14.3-14.8c2.2-2.3-1.3-5.9-3.5-3.5c-4.8,4.9-9.5,9.8-14.3,14.8
			C559,56.6,562.6,60.1,564.8,57.8L564.8,57.8z"/>
	</g>
</g>
<g>
	<g>
		<path class="st0" d="M583.9,65.9c7.7-9.2,16.8-16.9,27.2-22.9c2.8-1.6,0.3-5.9-2.5-4.3c-10.8,6.2-20.3,14.2-28.2,23.7
			C578.4,64.8,581.9,68.4,583.9,65.9L583.9,65.9z"/>
	</g>
</g>
<g>
	<g>
		<path class="st0" d="M142.7,224c-0.8-6.2-0.1-13.9,5.2-18.2c6.3-5.1,15.2-0.6,16.6,6.9c0.4,2.1,3.6,2.4,4.6,0.6
			c5.2-9.5,12.2-19.5,23.1-23c14.8-4.7,18.2,9.3,18.5,20.7c0.1,3.2,5.1,3.2,5,0c-0.3-12.3-3.9-27.9-19.5-26.6
			c-14.7,1.2-24.9,14.4-31.3,26.3c1.5,0.2,3,0.4,4.6,0.6c-1.8-9.1-11.9-15.2-20.7-11.7c-9.4,3.7-12,15.3-10.9,24.4
			C138,227.1,143,227.2,142.7,224L142.7,224z"/>
	</g>
</g>
<g>
	<g>
		<path class="st0" d="M259.3,267.1c-0.8-5.3,7.3-5.3,6.5,0c-0.4,2.8,2.8,4.2,4.6,1.9c5.4-7.1,13.6-11.8,22.5-12.8
			c4-0.4,10.1-0.7,13.2,2.3c4.4,4.2,1.3,11.4-0.7,15.9c-1.3,2.9,3,5.5,4.3,2.5c2.5-5.7,5-12,2.4-18.1c-2.4-5.6-7.8-7.2-13.4-7.7
			c-12.8-1-25.1,5.2-32.7,15.3c1.5,0.6,3,1.3,4.6,1.9c0.8-5.1-2.4-10.6-8.1-10.6c-5.7,0-8.8,5.5-8,10.6
			C255,271.6,259.8,270.2,259.3,267.1L259.3,267.1z"/>
	</g>
</g>
<g>
	<g>
		<path class="st0" d="M12.2,253.8c-0.8-2.7-1.8-5.8-1.1-8.6c0.6-2.5,5.2-7,6.4-2.1c0.5,2.1,3.5,2.4,4.6,0.6
			c3.9-7,11.4-9.9,18.7-12.1c4.7-1.4,9.8-3.5,13.9,0.5c3.6,3.5,4,9.1,4.5,13.9c0.3,3.2,5.3,3.2,5,0c-1-10.8-5.1-23.5-18.5-20.8
			c-10.4,2-22.3,6.3-27.8,16c1.5,0.2,3,0.4,4.6,0.6c-1.2-5.1-7.1-7.3-11.5-4.5c-6.3,3.9-5,12-3.4,18
			C8.2,258.3,13.1,256.9,12.2,253.8L12.2,253.8z"/>
	</g>
</g>
<g>
	<g>
		<path class="st0" d="M246.5,350.5c3.2-2.2,6.4-4.3,9.7-6.5c2.7-1.8,0.2-6.1-2.5-4.3c-3.2,2.2-6.4,4.3-9.7,6.5
			C241.3,348,243.8,352.3,246.5,350.5L246.5,350.5z"/>
	</g>
</g>
<g>
	<g>
		<path class="st0" d="M248,357.5c4.4-0.4,8.3-2,11.8-4.8c2.5-2-1-5.5-3.5-3.5c-2.3,1.9-5.2,3-8.2,3.3
			C244.8,352.8,244.8,357.8,248,357.5L248,357.5z"/>
	</g>
</g>
<g>
	<g>
		<path class="st0" d="M252,364.5c3.3,0.4,6.5,0,9.7-1.1c3-1,1.7-5.9-1.3-4.8c-2.7,0.9-5.5,1.2-8.3,0.9c-1.4-0.2-2.5,1.3-2.5,2.5
			C249.5,363.5,250.7,364.3,252,364.5L252,364.5z"/>
	</g>
</g>
<g>
	<g>
		<path class="st3" d="M436.2,132c-10.6-32.3,28.5-53.6,54.4-58.6c27.2-5.2,56,1.2,78.1,17.9c2.6,1.9,5.1-2.4,2.5-4.3
			c-24.4-18.4-56.8-24.5-86.4-17.4c-27.5,6.6-64.4,30.4-53.5,63.8C432.4,136.4,437.2,135,436.2,132L436.2,132z"/>
	</g>
</g>
<g>
	<g>
		<path class="st3" d="M437.7,171.8c1.3,3.4,2.4,7,3.8,10.4c0.7,1.6,1.3,3.1,3,3.9c1.8,0.8,3.7,0.1,5.5-0.6c1.8-0.7,6.9-4.4,8.1-4
			c0.9,0.3,2.6,5.8,3.4,6.8c1.2,1.6,2.9,3,4.9,3.3c5,0.8,10.1-5.3,13-8.5c-1.3-0.2-2.6-0.3-3.9-0.5c1.6,2.2,3.8,7.2,7,7.3
			c3.2,0.1,5.2-3.9,6.1-6.4c1-3.1-3.8-4.4-4.8-1.3c-1.2,3.5-2.6-0.3-3.9-2.1c-0.9-1.2-2.7-1.8-3.9-0.5c-1.5,1.6-3,3.1-4.6,4.5
			c-1.8,1.5-4.3,2.2-6.4,0.3c-0.7-0.6-0.9-2.4-1.3-3.2c-1-2.2-2.4-5-5.1-5.2c-2.9-0.3-5.7,2.9-8.2,4.1c-3.3,1.6-3.7,1.7-5-1.6
			c-1-2.6-1.9-5.2-2.9-7.8C441.4,167.5,436.5,168.7,437.7,171.8L437.7,171.8z"/>
	</g>
</g>
<g>
	<g>
		<path class="st3" d="M579.3,113.4c1,4.2,3.3,13.1,8.1,14.6c5.6,1.7,11.4-8.1,14.3-11.3c-1.3-0.2-2.6-0.3-3.9-0.5
			c1.4,3.1,2.6,9.4,5.8,11.1c3.1,1.6,5.9-1.4,8-3.2c1.4-1.2,3.2-3.5,5.1-3.4c1.2,0.1,2.3,1.1,3.7,1c3.4-0.2,5.5-3.1,7-5.9
			c1.6-2.8-2.8-5.3-4.3-2.5c-1,1.9-2.8,2.6-4.6,2.4c-0.6-0.1-1.1-0.7-1.7-0.8c-1.5-0.3-2.6,0.4-3.8,1.3c-1.8,1.3-4.2,5-6.2,5.5
			c-0.8,1.2-1.3,0.9-1.5-1.1c-0.3-0.6-0.5-1.2-0.8-1.8c-0.8-1.8-1.5-3.6-2.3-5.3c-0.6-1.5-2.9-1.6-3.9-0.5c-1.3,1.5-2.6,2.9-4,4.4
			c-1.1,1.2-3.1,4.6-4.8,4.8c-1.7,0.2-2.2-1.8-3-3.4c-1.1-2.2-1.8-4.5-2.4-6.9C583.3,109,578.5,110.3,579.3,113.4L579.3,113.4z"/>
	</g>
</g>
<g>
	<g>
		<path class="st3" d="M258.1,253.3c2.1-1.6,3.4-2.8,6-1.8c1.9,0.7,1.4,1.2,2.8,1.9c1.2,0.5,1.7,1,3.2,0.7c1.7-0.3,3.4-1.6,4.9-2.4
			c2.8-1.4,5.7-2.5,8.6-3.4c10.8-3.3,22.1-3.4,33-0.5c3.1,0.8,4.4-4,1.3-4.8c-12.5-3.3-25.8-3-38,1.3c-2.8,1-5.6,2.2-8.2,3.5
			c-3.1,1.6-1.8,0.5-4.5-1.1c-4.5-2.7-9.2,0.3-12.7,3.1C252,251.7,255.5,255.2,258.1,253.3L258.1,253.3z"/>
	</g>
</g>
<g>
	<g>
		<path class="st3" d="M538.9,394.7c5.7-3.4,11.3-6.8,17-10.2c2.7-1.6,5.6-3.9,8.8-4.4c2.9-0.4,5.7,0.8,8.7,0.8
			c5,0,9.9-1.9,14.2-4.4c2.1-1.2,4.9-3.9,7.4-4.1c3.2-0.4,4.5,3,6.8,4.4c3.4,1.9,7.6,1.4,11.2,0.1c2.9-1.1,5.7-2.9,8.8-3.4
			c3.3-0.5,6.2,1.1,9.4,1.7c10.6,1.8,20.1-5.5,30.2-7.3c3.2-0.6,1.8-5.4-1.3-4.8c-5.9,1.1-11.2,3.7-16.8,5.6
			c-2.7,0.9-5.5,1.8-8.4,1.8c-3,0.1-5.4-1.1-8.2-1.7c-5.9-1.3-10.3,1.9-15.7,3.6c-3.9,1.2-5.9,0.7-8.8-2.1c-1.3-1.3-2.2-2.3-4-2.8
			c-4.3-1.1-8.2,1.8-11.7,3.9c-2.7,1.7-5.7,3.2-8.8,4c-3.7,0.9-6.9,0.1-10.5-0.4c-5-0.7-8.8,2.4-12.9,4.8
			c-5.9,3.5-11.8,7.1-17.8,10.6C533.6,392,536.1,396.3,538.9,394.7L538.9,394.7z"/>
	</g>
</g>
</svg>
