<?xml version="1.0" encoding="utf-8"?>
<!-- Generator: Adobe Illustrator 22.1.0, SVG Export Plug-In . SVG Version: 6.00 Build 0)  -->
<svg version="1.1" id="Warstwa_2" xmlns="http://www.w3.org/2000/svg" xmlns:xlink="http://www.w3.org/1999/xlink" x="0px" y="0px"
	 viewBox="0 0 561 330" style="enable-background:new 0 0 561 330;" xml:space="preserve">
<style type="text/css">
	.st0{fill:#003DFF;}
	.st1{fill:#00CFFF;}
</style>
<g>
	<g>
		<path class="st0" d="M11.7,321.8c12.9-12.3,30.7-18.2,47.3-23.8c17.4-5.8,35.2-10.4,53.2-13.9c36.6-7.2,73.9-10.2,111.1-11.7
			c71.3-2.7,143.7-1.6,213.9,12.6c39.4,7.9,78,20.2,114.1,38c2.9,1.4,5.4-2.9,2.5-4.3c-65-32.2-137-45.9-208.9-50.4
			c-36.8-2.3-73.7-2.4-110.5-1.3c-37.7,1.1-75.4,3.7-112.6,10.2c-21.1,3.7-42,8.7-62.3,15.4c-18,5.9-37.2,12.4-51.2,25.7
			C5.9,320.5,9.4,324.1,11.7,321.8L11.7,321.8z"/>
	</g>
</g>
<g>
	<g>
		<path class="st0" d="M159,274.8c10.5-36.6,17-74.2,19.3-112.2c2.2-36.1,2.4-74.2-10.9-108.4c-1.2-3-6-1.7-4.8,1.3
			c13.2,33.8,12.9,71.4,10.7,107.1c-2.3,37.5-8.8,74.7-19.1,110.8C153.3,276.6,158.1,277.9,159,274.8L159,274.8z"/>
	</g>
</g>
<g>
	<g>
		<path class="st0" d="M182.5,46.2c20.9,72.1,15.4,148,9.8,221.9c-0.2,3.2,4.8,3.2,5,0c5.6-74.3,11-150.6-10-223.2
			C186.4,41.8,181.6,43.1,182.5,46.2L182.5,46.2z"/>
	</g>
</g>
<g>
	<g>
		<path class="st0" d="M163.8,50.5c-32.2,22.6-35,64.1-36.1,100c1.6-0.4,3.1-0.8,4.7-1.3c-8.3-19.3-10.4-41.2-5.6-61.7
			c4-17.1,13.4-35.6,31.6-40.6c1.9-0.5,2.6-3.7,0.6-4.6c-13.5-6-27.7,4-38.5,11.5c-12.9,9-24.4,19.7-34.4,31.8
			c1.4,0.8,2.8,1.6,4.2,2.4c6.1-15.4,12.5-31.7,24.3-43.7c11-11.2,27.5-18.1,43.1-12.9c0.8,0.3,1.8,0,2.4-0.6
			c14.8-14.8,36.8-24.3,57.9-19.1c18.5,4.6,34.2,20.8,35,40.3c1.6-0.4,3.1-0.8,4.7-1.3c-11.6-23.7-42.3-34.1-66.1-22.8
			c-1.8,0.9-1.5,4.3,0.6,4.6c34,5.1,49.2,39.7,49.2,70.7c1.7,0,3.3,0,5,0c-1.5-31.7-28.5-58.9-60.3-60.5c-3.2-0.2-3.2,4.8,0,5
			c28.9,1.5,53.9,26.6,55.3,55.5c0.2,3.2,5,3.2,5,0c0-33.1-16.7-70.2-52.9-75.5c0.2,1.5,0.4,3,0.6,4.6c21.4-10.2,48.9-0.1,59.2,21
			c1.1,2.2,4.8,1.1,4.7-1.3c-0.9-21.2-17.2-39.2-37.3-44.8c-23.1-6.5-47.7,3.7-64.1,20c0.8-0.2,1.6-0.4,2.4-0.6
			c-16.2-5.5-33.6,0.9-45.8,12c-13.9,12.7-21,30.9-27.8,48c-0.9,2.3,2.6,4.3,4.2,2.4c8.6-10.5,18.3-19.9,29.2-28
			c9.4-7,25.3-20,37.7-14.5c0.2-1.5,0.4-3,0.6-4.6c-19.2,5.3-30.1,24.2-34.7,42.4c-5.6,22.4-3.4,46.1,5.7,67.2c1,2.4,4.6,1,4.7-1.3
			c1-33.8,3.1-74.3,33.6-95.7C168.9,52.9,166.4,48.6,163.8,50.5L163.8,50.5z"/>
	</g>
</g>
<g>
	<g>
		<path class="st0" d="M201.4,218.9c0.7-9.8,1.5-20.9,9.2-28c6.5-6,19.2-6,20.9,4.6c0.2,1.5,2.4,2.4,3.7,1.5
			c6.5-4.7,13.6-8.1,21.4-9.9c3.9-0.9,8.3-1.8,12.3-0.8c4,1,8.9,5.8,5.1,10c-1.9,2.1,0.5,5.2,3,3.9c8.1-4.1,20.9-4.5,29.6-1.8
			c4.9,1.5,9.1,5.1,8.2,10.7c-0.9,5.8-5.9,10.1-10.7,12.9c-1.8,1-1.5,3.2,0,4.3c2.8,2,5.7,4.5,6.9,7.8c1.2,3.4,0,9.6-5,8.7
			c-3.1-0.6-4.5,3.9-1.3,4.8c10,3,8.5,16.2-1.4,17.9c-3.2,0.5-1.8,5.4,1.3,4.8c15.1-2.6,15.7-23.2,1.4-27.5
			c-0.4,1.6-0.9,3.2-1.3,4.8c5.8,1,10.8-3,11.8-8.8c1.3-7.2-4.6-13-9.9-16.8c0,1.4,0,2.9,0,4.3c10.1-5.8,20-20.7,7.4-29.8
			c-4.9-3.6-11.4-4.3-17.3-4.4c-7.6-0.1-15.4,0.3-22.3,3.8c1,1.3,2,2.6,3,3.9c7-7.7-0.6-17.4-9.2-18.7c-12.2-1.8-26.1,4.6-35.7,11.5
			c1.2,0.5,2.4,1,3.7,1.5c-1.8-11.1-15-15.2-24.2-10.4c-12.9,6.7-14.8,22.3-15.7,35.2C196.2,222.1,201.2,222.1,201.4,218.9
			L201.4,218.9z"/>
	</g>
</g>
<g>
	<g>
		<path class="st0" d="M340.5,206.7c3.9,10.1,7.8,20.2,11.8,30.3c2.3,5.9,4.2,15,12.2,14.9c4-0.1,8-1.7,12-2.1
			c4.4-0.4,8.8-0.2,13.1,0.6c9.2,1.7,17.8,5.8,24.8,12.1c2.4,2.1,5.9-1.4,3.5-3.5c-11.3-10.1-26.3-15.4-41.4-14.1
			c-3.8,0.3-8.4,2.4-12,2.1c-5-0.4-6.3-8.6-7.7-12.1c-3.8-9.8-7.6-19.6-11.4-29.4C344.2,202.4,339.4,203.7,340.5,206.7L340.5,206.7z
			"/>
	</g>
</g>
<g>
	<g>
		<path class="st0" d="M367.5,250c0.1,6.1-0.2,12.2-1.1,18.3c-0.5,3.1,4.3,4.5,4.8,1.3c1-6.5,1.4-13,1.3-19.6
			C372.4,246.8,367.4,246.8,367.5,250L367.5,250z"/>
	</g>
</g>
<g>
	<g>
		<path class="st0" d="M394.5,251c-0.8,6.3-2.5,12.4-4.9,18.4c-1.2,3,3.6,4.3,4.8,1.3c2.6-6.4,4.2-12.9,5.1-19.7
			C400,247.8,395,247.9,394.5,251L394.5,251z"/>
	</g>
</g>
<g>
	<g>
		<path class="st0" d="M434.1,279.2c-2.4-41.8-17.2-81.2-32.1-119.9c-1.1-3-6-1.7-4.8,1.3c14.7,38.2,29.6,77.2,32,118.5
			C429.3,282.4,434.3,282.4,434.1,279.2L434.1,279.2z"/>
	</g>
</g>
<g>
	<g>
		<path class="st0" d="M353.3,184.3c14.9-13.4,33-22.5,52.6-26.4c21.1-4.2,43-2.6,64.2-0.3c3.2,0.4,3.2-4.7,0-5
			c-22.4-2.5-45.2-4-67.4,0.8c-19.8,4.3-38,13.8-53,27.3C347.3,182.9,350.9,186.5,353.3,184.3L353.3,184.3z"/>
	</g>
</g>
<g>
	<g>
		<path class="st0" d="M353.8,182.5c5.8-21.5,28.1-35.6,48.7-40.3c22.9-5.2,46.7,0.4,66.7,12.1c2.8,1.6,5.3-2.7,2.5-4.3
			c-21.6-12.7-47.5-18.4-72.1-12.3c-21.7,5.4-44.5,20.7-50.6,43.4C348.1,184.3,352.9,185.6,353.8,182.5L353.8,182.5z"/>
	</g>
</g>
<g>
	<g>
		<path class="st0" d="M389.5,269c0,1.3,0,2.7,0,4c0,1.3,1.1,2.6,2.5,2.5c1.4-0.1,2.5-1.1,2.5-2.5c0-1.3,0-2.7,0-4
			c0-1.3-1.1-2.6-2.5-2.5C390.6,266.6,389.5,267.6,389.5,269L389.5,269z"/>
	</g>
</g>
<g>
	<g>
		<path class="st0" d="M352.8,220.8c7.5-7.8,2.7-19.9-7.8-21.1c-3.2-0.4-3.2,4.6,0,5c6.4,0.7,8.6,8.1,4.3,12.6
			C347,219.6,350.6,223.1,352.8,220.8L352.8,220.8z"/>
	</g>
</g>
<g>
	<g>
		<path class="st0" d="M10.6,322c33.8-7.2,68.4-9.2,102.9-10.6c34.6-1.5,69.3-2.4,104-2.8c70-0.8,140,0.6,209.9,4.1
			c39.2,2,78.4,4.7,117.6,8.1c3.2,0.3,3.2-4.7,0-5c-70.1-6-140.3-9.9-210.6-11.5c-70.3-1.6-140.7-1.1-210.9,1.7
			c-38.2,1.5-76.6,3.3-114.1,11.2C6.1,317.8,7.4,322.7,10.6,322L10.6,322z"/>
	</g>
</g>
<g>
	<g>
		<path class="st1" d="M187.8,296.8c4.4-4,9.3-7.1,14.7-9.5c-1.1-0.3-2.3-0.6-3.4-0.9c1.7,3.2,1.8,6.3,0.7,9.7
			c-0.6,1.9,1.3,3.5,3.1,3.1c7.1-1.8,14.2-3.6,21.2-5.3c1.5-0.4,4-1.6,5.6-1.3c1.9,0.3,2,1,2.8,2.8c0.8,1.6,1,2.7,2.7,3.6
			c4,2.1,10.5,0.1,14.6-0.8c3.1-0.7,6.1-1.7,9.1-2.9c1.3-0.5,2.5-1.1,3.8-1.6c0.8-0.4,1.6-0.7,2.4-1.1c1.8-1,3.3-0.5,4.6,1.7
			c-1,1.5,0.3,3.9,2.2,3.8c12.7-0.7,25-3.3,36.8-8c3-1.2,1.7-6-1.3-4.8c-11.4,4.5-23.2,7.2-35.5,7.8c0.7,1.3,1.4,2.5,2.2,3.8
			c3-4.7-1.4-10-6.5-9.8c-4,0.1-7.9,2.8-11.5,4.1c-4.2,1.6-8.6,2.7-13.1,3.3c-2.3,0.3-4.1,1.1-5.5-1c-0.6-0.9-0.4-2.4-1.2-3.4
			c-1.5-2-4-2.4-6.4-2.3c-4.2,0.2-8.6,1.9-12.7,2.9c-5.1,1.3-10.3,2.6-15.4,3.9c1,1,2.1,2.1,3.1,3.1c1.5-4.7,1.1-9.2-1.2-13.6
			c-0.7-1.3-2.2-1.4-3.4-0.9c-5.8,2.6-11,6.1-15.7,10.3C181.8,295.4,185.4,298.9,187.8,296.8L187.8,296.8z"/>
	</g>
</g>
<g>
	<g>
		<path class="st1" d="M292.6,103.3c-0.8-5.6,0.5-12.2,6-15c5.5-2.8,12.8,0.9,11.1,7.6c-0.7,2.6,3.4,4.6,4.6,1.9
			c3.2-7.3,10.2-13.6,18.6-13.1c8.5,0.5,15.3,9.1,13.1,17.4c-0.8,3.1,4,4.4,4.8,1.3c2.8-10.2-4.3-21-14.5-23.3
			c-11.2-2.5-22,5.3-26.3,15.2c1.5,0.6,3,1.3,4.6,1.9c2.2-8.4-5.1-16.2-13.7-14.9c-10.7,1.7-14.4,12.7-13,22.2
			C288.3,107.8,293.1,106.4,292.6,103.3L292.6,103.3z"/>
	</g>
</g>
<g>
	<g>
		<path class="st1" d="M394.2,69.3c2-4.5,4.8-8.6,8.5-12c1.4-1.3,4.5-4.1,6.6-3.7c3.5,0.6,4.1,7.5,4.4,10.1c0.3,2.3,3.3,3.6,4.7,1.3
			c3.3-5.7,8.2-10.3,14.5-12.8c4.2-1.6,6.3-0.4,7.1,4c0.7,4.2,0.8,8.5,0.5,12.8c-0.2,3.2,4.8,3.2,5,0c0.5-7.3,1.4-23.7-9.7-22.7
			c-9.1,0.8-17.3,8.7-21.7,16.2c1.6,0.4,3.1,0.8,4.7,1.3c-0.8-6.5-2.4-16.8-11.3-14.9c-8.1,1.7-14.4,11-17.5,17.9
			C388.5,69.6,392.8,72.2,394.2,69.3L394.2,69.3z"/>
	</g>
</g>
</svg>
