<?xml version="1.0" encoding="UTF-8" standalone="no"?>
<!-- Generator: Adobe Illustrator 22.1.0, SVG Export Plug-In . SVG Version: 6.00 Build 0)  -->

<svg
   xmlns:dc="http://purl.org/dc/elements/1.1/"
   xmlns:cc="http://creativecommons.org/ns#"
   xmlns:rdf="http://www.w3.org/1999/02/22-rdf-syntax-ns#"
   xmlns:svg="http://www.w3.org/2000/svg"
   xmlns="http://www.w3.org/2000/svg"
   xmlns:sodipodi="http://sodipodi.sourceforge.net/DTD/sodipodi-0.dtd"
   xmlns:inkscape="http://www.inkscape.org/namespaces/inkscape"
   version="1.1"
   id="Warstwa_1"
   x="0px"
   y="0px"
   viewBox="0 0 746 452"
   style="enable-background:new 0 0 746 452;"
   xml:space="preserve"
   sodipodi:docname="samolotV2.svg"
   inkscape:version="0.92.3 (2405546, 2018-03-11)"><metadata
   id="metadata21"><rdf:RDF><cc:Work
       rdf:about=""><dc:format>image/svg+xml</dc:format><dc:type
         rdf:resource="http://purl.org/dc/dcmitype/StillImage" /><dc:title></dc:title></cc:Work></rdf:RDF></metadata><defs
   id="defs19" /><sodipodi:namedview
   pagecolor="#ffffff"
   bordercolor="#666666"
   borderopacity="1"
   objecttolerance="10"
   gridtolerance="10"
   guidetolerance="10"
   inkscape:pageopacity="0"
   inkscape:pageshadow="2"
   inkscape:window-width="1456"
   inkscape:window-height="752"
   id="namedview17"
   showgrid="false"
   inkscape:zoom="0.4772118"
   inkscape:cx="142.49438"
   inkscape:cy="226"
   inkscape:window-x="0"
   inkscape:window-y="0"
   inkscape:window-maximized="0"
   inkscape:current-layer="Warstwa_1" />
<style
   type="text/css"
   id="style2">
	.st0{fill:#0080FF;}
</style>
<path
   class="st0"
   d="m 694.73995,100.91525 c -7.85176,-0.11013 -15.58084,0.66081 -23.30992,1.98243 -0.12268,-0.77095 -0.36806,-1.54189 -0.98147,-2.31283 -14.84473,-20.705346 -40.24026,-33.150578 -66.98533,-36.895161 -33.24729,-4.735797 -66.86264,2.31283 -98.76041,10.462805 -3.31246,0.881079 -6.50225,1.652022 -9.8147,2.533101 C 461.39545,47.389738 422.01397,23.710757 378.95197,7.3006715 368.2785,3.225684 356.99159,-1.5101124 345.21394,-1.5101124 c -10.06007,0 -19.50671,4.0749876 -26.13163,10.7932103 -15.70352,15.5290071 -13.98596,37.2255621 -6.99298,55.9484781 8.83323,23.678981 21.96039,46.476884 36.80512,67.622764 -2.69903,1.32162 -5.39808,2.75337 -7.97444,4.07499 -51.77254,26.65262 -100.23262,58.26131 -145.50292,92.95377 -20.61088,15.85941 -40.731,32.2695 -60.11504,49.34039 -3.8032,-0.55067 -7.36102,-2.86351 -10.42812,-4.62566 -4.17125,-2.42297 -8.34249,-4.95607 -12.7591,-7.2689 -8.71056,-4.62566 -17.666469,-8.92092 -26.990435,-12.55537 -9.446649,-3.74458 -19.015981,-7.04862 -28.953365,-9.80199 -8.587863,-2.42297 -17.66646,-4.84593 -26.867741,-4.95607 -16.930358,-0.11013 -29.32141614,10.90335 -29.56678322,26.10195 -0.24536708,17.07089 14.72204922,29.73639 27.72652722,40.41947 17.175724,14.09725 35.700971,26.87289 55.085003,38.43704 0,0.66081 0,1.32162 0.122684,1.98243 0.368051,4.40539 1.840257,8.59052 3.92588,12.3351 -5.152717,6.71822 -10.305435,13.32631 -15.458152,20.04453 -3.189778,4.07499 -6.256872,8.14998 -9.44665,12.3351 -2.576358,3.41418 -5.398085,6.93849 -5.520768,11.23375 -0.245367,7.37903 6.747607,12.88577 14.599367,13.54658 9.569332,0.88108 17.789135,-5.17634 25.395538,-9.69186 10.182755,-6.05742 20.365505,-12.11483 30.548245,-18.28238 3.55784,-2.09256 7.11566,-4.18512 10.79617,-6.27768 5.15273,-0.22027 10.30544,-0.77095 15.33547,-1.65203 19.13866,-3.30404 37.90928,-9.47159 56.67989,-14.42765 19.26135,-5.17634 38.64538,-10.46281 57.90674,-15.63915 1.59488,-0.44053 2.69904,-1.21148 3.43514,-2.31283 41.71248,-13.76685 83.67032,-26.98302 125.62816,-39.97893 0.85879,10.68308 4.29394,21.58642 7.23834,31.60869 6.13419,20.59521 13.49521,40.97014 21.96039,60.90454 4.17125,9.802 8.71055,19.38373 13.37253,28.96545 3.8032,7.59931 7.6064,15.96955 15.58085,20.70535 18.52524,11.12361 36.9278,-6.27769 46.61981,-19.05332 12.1457,-16.07968 22.45113,-33.37085 30.79363,-51.21268 17.78913,-37.88638 27.11311,-78.85652 27.11311,-120.04694 43.06199,-11.78442 88.57766,-21.80669 126.60962,-43.94378 31.65241,-18.39251 61.95529,-50.11133 61.95529,-85.90514 0,-23.34858 -32.14313,-29.07559 -52.99937,-29.29586 z M 581.87089,73.161281 c 29.44411,0.110135 60.72846,9.471593 77.53614,32.379629 -10.67349,2.64324 -20.97892,6.38782 -30.91631,10.46281 -0.85878,-0.33041 -1.96294,-0.44054 -3.0671,-0.22027 -26.377,3.30404 -51.89521,-15.41887 -55.8211,-38.547181 -0.36805,-1.872292 -1.34951,-2.97364 -2.69904,-3.524314 5.03003,-0.440539 10.06007,-0.660809 14.96741,-0.550674 z m -252.36047,2.422966 c -7.60639,-16.74049 -16.68499,-37.776236 -4.90734,-54.736995 5.03003,-7.268897 13.12716,-12.0046933 22.81917,-11.3438845 10.67349,0.6608085 21.46966,5.6168745 31.16168,9.4715925 18.77061,7.489167 36.80511,16.29995 53.98085,26.432352 17.54377,10.352671 33.8607,22.137094 49.0735,35.022866 -42.20322,12.224963 -82.93423,28.304642 -121.94766,47.137692 -11.65495,-16.52022 -21.8377,-33.811381 -30.1802,-51.983623 z M 84.879027,333.07941 c -18.279878,-11.23375 -35.70097,-23.56885 -51.895225,-37.11543 -7.85176,-6.60809 -16.68499,-13.76685 -19.874768,-23.34858 -2.330991,-7.04863 -0.858787,-16.52022 7.238341,-20.04453 8.955914,-3.96485 20.61087,-0.33041 29.566784,2.09256 11.286905,2.97364 22.328442,6.71822 33.001929,11.23375 10.550807,4.40539 20.733562,9.47159 30.425572,15.08847 4.17125,2.42296 8.2198,4.84593 12.51374,6.60808 -9.44665,8.26011 -19.01599,16.63036 -27.481154,25.66141 -5.520769,5.94728 -10.67349,12.55537 -13.495219,19.82427 z m 61.341883,30.3972 c -4.04857,2.86351 -8.3425,5.39661 -12.63643,7.92971 -1.22685,0 -2.45369,-0.11014 -3.68052,-0.11014 -0.49073,3.41418 -2.82172,6.49795 -7.11565,7.2689 -1.22685,0.99121 -2.94441,1.76215 -4.90736,1.87229 0,0 0,0 0.12269,0 -7.97445,4.7358 -15.94889,9.47159 -23.923328,14.31752 -3.557827,2.09256 -20.488189,15.08847 -25.027488,9.58173 -1.962941,-2.42296 3.067094,-6.93849 4.661983,-8.92092 3.189777,-4.07499 6.25687,-8.14997 9.446648,-12.3351 l 11.164216,-14.53779 c 0.368059,0.33041 0.736108,0.66081 1.104156,0.99121 0,-0.11013 0.12269,-0.3304 0.12269,-0.44053 -0.12269,-0.44054 -0.245369,-0.99122 -0.245369,-1.43176 0.613417,-0.22027 1.226835,-0.55067 1.717573,-0.99121 3.312459,-2.31283 6.624929,-4.7358 9.937379,-7.04863 1.10416,-0.77094 1.71758,-1.98242 1.71758,-3.19391 4.78466,-1.98242 9.69201,-3.63444 14.84473,-4.95606 8.3425,-2.2027 19.01597,-4.84593 27.72653,-3.96486 10.91885,0.99122 -1.71757,13.65672 -5.03003,15.96955 z m 400.68511,-96.69835 c -0.73609,29.18572 -6.13418,58.15117 -16.31694,86.01528 -6.01149,16.63035 -13.74057,32.71003 -22.94185,48.1289 -4.5393,7.48917 -9.32398,14.75807 -14.59937,21.91683 -4.90735,6.71822 -10.30544,14.09725 -18.40256,18.17224 -9.20127,4.62566 -15.8262,-0.22027 -20.24282,-7.70944 -4.66199,-7.9297 -8.46518,-16.52022 -12.14569,-24.78033 -7.97444,-17.51143 -14.96742,-35.4634 -21.1016,-53.52551 -2.94442,-8.92092 -5.64346,-17.84184 -8.21982,-26.87289 -2.08561,-7.70944 -4.29392,-15.52901 -4.53929,-23.45871 0.36805,-0.11014 0.85878,-0.22027 1.22683,-0.33041 -0.24537,-1.10134 -0.36805,-2.20269 -0.49074,-3.41417 -0.12267,-3.08378 0.61343,-6.05742 1.96295,-8.70065 -0.36806,0.11013 -0.61342,0.22027 -0.98148,0.3304 4.66198,-12.88577 17.54379,-22.35736 30.54826,-29.29586 30.05752,-16.07968 68.08949,-19.71413 101.21409,-9.58172 -1.22683,0.3304 -2.57635,0.77094 -3.80319,1.10134 7.97444,-0.11013 10.91886,6.82836 8.83322,12.0047 z M 735.22558,134.83677 c -3.92588,34.58233 -34.35145,61.78562 -66.61728,77.8653 -33.61534,16.74049 -71.6473,25.88168 -108.57511,35.79381 -0.36805,-0.22027 -0.85878,-0.55067 -1.34952,-0.77094 -0.36806,-0.11014 -0.85879,-0.33041 -1.22683,-0.44054 -1.22685,-1.10135 -2.94442,-1.76216 -4.662,-1.76216 -34.22876,-12.3351 -73.11951,-11.34388 -106.73486,2.5331 -17.2984,7.15876 -36.31438,18.61278 -44.90226,34.36206 -2.45367,4.51553 -3.92586,9.25132 -4.53929,13.98712 -47.60128,14.64793 -95.07991,29.73639 -142.31314,45.37554 -0.8588,0.3304 -1.5949,0.6608 -2.20831,1.21148 -27.60384,7.48916 -55.08501,14.97833 -82.68885,22.35736 -3.43514,0.88108 -6.99297,1.87229 -10.67349,2.64324 4.41663,-3.96486 7.97445,-8.81079 8.58787,-14.64793 0.7361,-7.04863 -3.18979,-14.42766 -11.16423,-16.41009 -10.18275,-2.5331 -24.04601,0.77095 -33.8607,3.19391 -9.32398,2.31283 -18.27988,5.61688 -26.745063,9.69187 -3.189778,-11.23375 4.661983,-22.02696 12.636423,-30.17694 9.0786,-9.36146 19.13867,-18.06211 28.95336,-26.76276 1.10416,-0.99121 2.20831,-1.98242 3.31247,-2.97363 0.49074,0 0.98147,-0.11014 1.47219,-0.22027 3.31247,-0.55068 4.53931,-2.75337 4.41663,-4.95607 16.68499,-14.53779 33.86071,-28.74518 51.52718,-42.4019 83.54763,-64.86939 178.75022,-119.38612 284.13555,-150.554268 25.39554,-7.489166 52.14059,-14.978332 79.00834,-17.731702 -2.08563,1.101348 -3.55782,3.193909 -3.18978,5.947279 4.66198,27.313431 33.2473,46.917421 63.05945,46.697151 1.71757,1.76216 4.53929,2.64324 7.4837,1.32162 19.01599,-8.48038 39.74953,-15.30874 61.2192,-16.18981 10.06007,-0.33041 20.12013,0.6608 29.68947,3.41417 4.53929,1.32162 9.69201,2.97364 13.00447,6.16755 3.8032,3.85472 3.43514,8.81079 2.94441,13.43645 z"
   id="path4"
   inkscape:connector-curvature="0"
   style="fill:#0080ff;stroke-width:1.16240048" />
<path
   class="st0"
   d="m 536.96864,128.55908 c -6.74759,-15.63914 -25.6409,-20.2648 -42.2032,-22.90803 -2.08562,-0.33041 -3.80321,0.22027 -5.15272,1.21148 -1.71758,0.11013 -3.43515,0.88108 -4.53931,2.75337 -7.97444,13.54658 -13.74058,30.94788 -4.41661,45.15527 7.48371,11.23375 23.92333,18.39251 37.66392,11.89456 13.98594,-6.49796 24.53675,-24.56006 18.64792,-38.10665 z m -23.18722,27.75397 c -8.71055,4.84594 -19.13867,-1.21148 -23.18723,-8.48038 -5.52078,-9.80199 -0.98147,-21.69655 4.17125,-31.05801 10.67348,1.65202 22.5738,3.96485 28.95336,12.44523 6.62493,8.81079 -0.61342,21.91683 -9.93738,27.09316 z"
   id="path6"
   inkscape:connector-curvature="0"
   style="fill:#0080ff;stroke-width:1.16240048" />
<path
   class="st0"
   d="m 425.32643,135.49758 c -4.41662,-0.33041 -6.25687,2.97364 -5.76613,6.05741 -0.36805,0.11014 -0.7361,0.22027 -0.98147,0.44054 -14.59938,7.04863 -20.3655,22.57763 -21.71503,36.56475 -1.34951,14.09726 7.72907,28.74519 25.76358,25.11074 16.93037,-3.41418 27.48117,-23.34858 28.95338,-37.55597 1.34952,-14.8682 -9.07861,-29.40599 -26.25433,-30.61747 z m 13.61789,31.71882 c -1.59488,8.70065 -8.58785,23.89925 -19.75207,25.77154 -12.02301,1.98243 -10.79617,-12.55536 -9.32397,-19.16345 1.84026,-8.81079 5.52076,-17.95197 14.84474,-22.4675 2.2083,-1.10135 3.18978,-2.86351 3.06709,-4.51553 9.20127,2.09256 12.63643,12.55537 11.16421,20.37494 z"
   id="path8"
   inkscape:connector-curvature="0"
   style="fill:#0080ff;stroke-width:1.16240048" />
<path
   class="st0"
   d="m 376.25294,181.97446 c -5.15272,-12.00469 -19.13867,-19.49386 -33.36999,-16.85062 -5.76613,1.10135 -5.39809,7.26889 -1.59488,9.802 -2.20832,-0.33041 -4.53931,0.3304 -6.1342,2.42296 -9.0786,11.56415 -15.33546,27.64384 -5.15271,40.41947 8.58786,10.79321 24.65944,13.43645 35.70097,3.96485 11.16422,-9.69186 16.07157,-26.65262 10.55081,-39.75866 z m -18.03452,30.72761 c -6.37955,6.38782 -15.45815,4.18512 -19.50671,-3.08377 -5.15273,-8.92092 1.34952,-19.38373 6.99297,-26.65262 2.20831,-2.75337 0.85878,-5.50674 -1.59489,-6.9385 0.61341,0.11014 1.34952,0 2.08563,-0.11013 9.07859,-1.76216 17.42108,4.84593 19.50671,12.55537 2.08563,8.03984 -1.22684,17.95197 -7.48371,24.22965 z"
   id="path10"
   inkscape:connector-curvature="0"
   style="fill:#0080ff;stroke-width:1.16240048" />
<path
   class="st0"
   d="m 307.42734,223.38515 c -11.53227,-13.65672 -31.40703,-11.45402 -47.84665,-8.26011 -5.15272,0.99121 -5.39808,6.05741 -2.69904,8.81078 -1.34953,0.33041 -2.57636,0.99121 -3.55784,2.2027 -7.60639,9.69186 -4.53929,23.34857 4.53931,31.38841 10.5508,9.25133 27.23578,8.70065 39.01343,1.43176 12.7591,-7.70944 20.97892,-23.23845 10.55079,-35.57354 z m -18.27987,26.98302 c -6.8703,3.85472 -16.43963,4.7358 -22.6965,-0.55067 -5.52076,-4.7358 -7.11565,-12.3351 -2.57635,-17.95197 1.84026,-2.31283 1.22684,-4.62567 -0.49074,-6.16755 10.6735,-2.09256 24.78212,-4.84593 33.24729,3.30404 7.72908,7.2689 0.49074,17.0709 -7.4837,21.36615 z"
   id="path12"
   inkscape:connector-curvature="0"
   style="fill:#0080ff;stroke-width:1.16240048" />
<path
   class="st0"
   d="m 216.64138,273.38635 c -6.13419,-8.48038 -18.15719,-11.45402 -28.83069,-11.34389 -5.64345,0.11014 -7.23834,5.72701 -4.78466,8.92092 -3.31247,8.70065 -3.18978,18.72292 4.66199,25.55127 7.60638,6.60809 20.3655,7.5993 27.60383,0.22027 6.37956,-6.27768 6.37956,-16.41008 1.34953,-23.34857 z m -8.95592,13.65671 c -1.4722,4.51553 -6.62492,4.84593 -10.55081,2.2027 -5.27539,-3.63445 -4.53929,-10.46281 -2.20829,-15.52901 7.60638,1.43175 15.33545,5.50674 12.7591,13.32631 z"
   id="path14"
   inkscape:connector-curvature="0"
   style="fill:#0080ff;stroke-width:1.16240048" />
</svg>